%YAML 1.1
%TAG !u! tag:unity3d.com,2011:
--- !u!1 &100000
GameObject:
  m_ObjectHideFlags: 0
  m_PrefabParentObject: {fileID: 0}
  m_PrefabInternal: {fileID: 100100000}
  serializedVersion: 4
  m_Component:
  - 4: {fileID: 400000}
  - 114: {fileID: 11400000}
  m_Layer: 0
  m_Name: Bat
  m_TagString: Untagged
  m_Icon: {fileID: 0}
  m_NavMeshLayer: 0
  m_StaticEditorFlags: 0
  m_IsActive: 1
--- !u!1 &100002
GameObject:
  m_ObjectHideFlags: 1
  m_PrefabParentObject: {fileID: 0}
  m_PrefabInternal: {fileID: 100100000}
  serializedVersion: 4
  m_Component:
  - 4: {fileID: 400002}
  - 212: {fileID: 21200000}
  - 60: {fileID: 6000000}
  - 50: {fileID: 5000000}
  - 114: {fileID: 11400008}
  - 233: {fileID: 23300000}
  - 114: {fileID: 11400014}
  m_Layer: 10
  m_Name: BatR_RightWing
  m_TagString: Untagged
  m_Icon: {fileID: 0}
  m_NavMeshLayer: 0
  m_StaticEditorFlags: 0
  m_IsActive: 1
--- !u!1 &100004
GameObject:
  m_ObjectHideFlags: 1
  m_PrefabParentObject: {fileID: 0}
  m_PrefabInternal: {fileID: 100100000}
  serializedVersion: 4
  m_Component:
  - 4: {fileID: 400004}
  - 212: {fileID: 21200002}
  - 60: {fileID: 6000004}
  - 50: {fileID: 5000004}
  - 114: {fileID: 11400012}
  - 233: {fileID: 23300002}
  - 114: {fileID: 11400016}
  m_Layer: 10
  m_Name: Bat_LeftWing
  m_TagString: Untagged
  m_Icon: {fileID: 0}
  m_NavMeshLayer: 0
  m_StaticEditorFlags: 0
  m_IsActive: 1
--- !u!1 &100006
GameObject:
  m_ObjectHideFlags: 0
  m_PrefabParentObject: {fileID: 0}
  m_PrefabInternal: {fileID: 100100000}
  serializedVersion: 4
  m_Component:
  - 4: {fileID: 400006}
  - 212: {fileID: 21200004}
  - 60: {fileID: 6000002}
  - 50: {fileID: 5000002}
  - 114: {fileID: 11400010}
  - 114: {fileID: 11400006}
  - 114: {fileID: 11400004}
  - 114: {fileID: 11400002}
  m_Layer: 10
  m_Name: Bat
  m_TagString: Untagged
  m_Icon: {fileID: 0}
  m_NavMeshLayer: 0
  m_StaticEditorFlags: 0
  m_IsActive: 1
--- !u!4 &400000
Transform:
  m_ObjectHideFlags: 1
  m_PrefabParentObject: {fileID: 0}
  m_PrefabInternal: {fileID: 100100000}
  m_GameObject: {fileID: 100000}
  m_LocalRotation: {x: 0, y: 0, z: 0, w: 1}
  m_LocalPosition: {x: 0, y: 0, z: 0}
  m_LocalScale: {x: 1, y: 1, z: 1}
  m_Children:
  - {fileID: 400006}
  m_Father: {fileID: 0}
  m_RootOrder: 0
--- !u!4 &400002
Transform:
  m_ObjectHideFlags: 1
  m_PrefabParentObject: {fileID: 0}
  m_PrefabInternal: {fileID: 100100000}
  m_GameObject: {fileID: 100002}
  m_LocalRotation: {x: 0, y: 0, z: 0, w: 1}
  m_LocalPosition: {x: .466293335, y: .169410706, z: 0}
  m_LocalScale: {x: 1, y: 1, z: 1}
  m_Children: []
  m_Father: {fileID: 400006}
  m_RootOrder: 1
--- !u!4 &400004
Transform:
  m_ObjectHideFlags: 1
  m_PrefabParentObject: {fileID: 0}
  m_PrefabInternal: {fileID: 100100000}
  m_GameObject: {fileID: 100004}
  m_LocalRotation: {x: 0, y: 0, z: 0, w: 1}
  m_LocalPosition: {x: -.524593353, y: .0781402588, z: 0}
  m_LocalScale: {x: 1, y: 1, z: 1}
  m_Children: []
  m_Father: {fileID: 400006}
  m_RootOrder: 0
--- !u!4 &400006
Transform:
  m_ObjectHideFlags: 1
  m_PrefabParentObject: {fileID: 0}
  m_PrefabInternal: {fileID: 100100000}
  m_GameObject: {fileID: 100006}
  m_LocalRotation: {x: 0, y: 0, z: 0, w: 1}
  m_LocalPosition: {x: 0, y: 0, z: 0}
  m_LocalScale: {x: 1, y: 1, z: 1}
  m_Children:
  - {fileID: 400004}
  - {fileID: 400002}
  m_Father: {fileID: 400000}
  m_RootOrder: 0
--- !u!50 &5000000
Rigidbody2D:
  m_ObjectHideFlags: 1
  m_PrefabParentObject: {fileID: 0}
  m_PrefabInternal: {fileID: 100100000}
  m_GameObject: {fileID: 100002}
  m_Mass: .5
  m_LinearDrag: 0
  m_AngularDrag: .0500000007
  m_GravityScale: 0
  m_FixedAngle: 0
  m_IsKinematic: 0
  m_Interpolate: 0
  m_SleepingMode: 1
  m_CollisionDetection: 0
--- !u!50 &5000002
Rigidbody2D:
  m_ObjectHideFlags: 1
  m_PrefabParentObject: {fileID: 0}
  m_PrefabInternal: {fileID: 100100000}
  m_GameObject: {fileID: 100006}
  m_Mass: 1
  m_LinearDrag: 1
  m_AngularDrag: .0500000007
  m_GravityScale: 0
  m_FixedAngle: 1
  m_IsKinematic: 0
  m_Interpolate: 0
  m_SleepingMode: 1
  m_CollisionDetection: 0
--- !u!50 &5000004
Rigidbody2D:
  m_ObjectHideFlags: 1
  m_PrefabParentObject: {fileID: 0}
  m_PrefabInternal: {fileID: 100100000}
  m_GameObject: {fileID: 100004}
  m_Mass: .5
  m_LinearDrag: 0
  m_AngularDrag: .0500000007
  m_GravityScale: 0
  m_FixedAngle: 0
  m_IsKinematic: 0
  m_Interpolate: 0
  m_SleepingMode: 1
  m_CollisionDetection: 0
--- !u!60 &6000000
PolygonCollider2D:
  m_ObjectHideFlags: 1
  m_PrefabParentObject: {fileID: 0}
  m_PrefabInternal: {fileID: 100100000}
  m_GameObject: {fileID: 100002}
  m_Enabled: 1
  m_Material: {fileID: 6200000, guid: 7aff207a2d106cc4d9fea17bb661317d, type: 2}
  m_IsTrigger: 0
  m_Poly:
    m_Paths:
    - - {x: 1.05097318, y: -.494916975}
      - {x: 1.13097322, y: -.524917006}
      - {x: 1.33097315, y: -.584917009}
      - {x: 1.50097322, y: -.804916978}
      - {x: 1.51097322, y: -.804916978}
      - {x: 1.54097319, y: -.774916947}
      - {x: 1.55097318, y: -.634916961}
      - {x: 1.52097321, y: -.544916987}
      - {x: 1.5309732, y: -.484916985}
      - {x: 1.82097316, y: -.324916989}
      - {x: 2.22097325, y: -.204916984}
      - {x: 2.36097312, y: -.234916985}
      - {x: 2.64097309, y: -.194916993}
      - {x: 2.77097321, y: -.164916992}
      - {x: 2.7809732, y: -.134916991}
      - {x: 2.7809732, y: -.10491699}
      - {x: 2.69097304, y: -.0449169911}
      - {x: 2.59097314, y: -.0149169918}
      - {x: 2.37097311, y: .0250830073}
      - {x: 2.24097323, y: .0350830071}
      - {x: 2.04097319, y: .0650830045}
      - {x: 1.46097314, y: .275083005}
      - {x: 1.32097316, y: .315082997}
      - {x: 1.05097318, y: .445082992}
      - {x: .910973191, y: .485082984}
      - {x: .910973191, y: .485082984}
      - {x: .830973208, y: .485082984}
      - {x: .710973203, y: .405083001}
      - {x: .550973177, y: .275083005}
      - {x: .190973207, y: .165083006}
      - {x: .050973203, y: .185083002}
      - {x: -.0890267938, y: .175082996}
      - {x: -.149026796, y: .125082999}
      - {x: -.179026797, y: .0850830078}
      - {x: -.179026797, y: -.0949169919}
      - {x: -.0290267933, y: -.224916995}
      - {x: .0409732051, y: -.134916991}
      - {x: .130973205, y: -.314916998}
      - {x: .190973207, y: -.484916985}
      - {x: .200973198, y: -.574916959}
      - {x: .180973202, y: -.844916999}
      - {x: .210973203, y: -.85491699}
      - {x: .250973195, y: -.85491699}
      - {x: .300973207, y: -.794916987}
      - {x: .360973209, y: -.634916961}
      - {x: .570973217, y: -.534916997}
--- !u!60 &6000002
PolygonCollider2D:
  m_ObjectHideFlags: 1
  m_PrefabParentObject: {fileID: 0}
  m_PrefabInternal: {fileID: 100100000}
  m_GameObject: {fileID: 100006}
  m_Enabled: 1
  m_Material: {fileID: 6200000, guid: 7aff207a2d106cc4d9fea17bb661317d, type: 2}
  m_IsTrigger: 0
  m_Poly:
    m_Paths:
    - - {x: .599999964, y: .199999988}
      - {x: .439999998, y: .429999977}
      - {x: .219999999, y: .539999962}
      - {x: -.140000001, y: .539999962}
      - {x: -.299999982, y: .469999999}
      - {x: -.459999979, y: .359999985}
      - {x: -.529999971, y: .280000001}
      - {x: -.639999986, y: .0399999991}
      - {x: -.639999986, y: -.219999999}
      - {x: -.560000002, y: -.409999996}
      - {x: -.399999976, y: -.550000012}
      - {x: -.329999983, y: -.569999993}
      - {x: -.219999999, y: -.599999964}
      - {x: .140000001, y: -.599999964}
      - {x: .429999977, y: -.459999979}
      - {x: .539999962, y: -.340000004}
      - {x: .599999964, y: -.119999997}
--- !u!60 &6000004
PolygonCollider2D:
  m_ObjectHideFlags: 1
  m_PrefabParentObject: {fileID: 0}
  m_PrefabInternal: {fileID: 100100000}
  m_GameObject: {fileID: 100004}
  m_Enabled: 1
  m_Material: {fileID: 6200000, guid: 7aff207a2d106cc4d9fea17bb661317d, type: 2}
  m_IsTrigger: 0
  m_Poly:
    m_Paths:
    - - {x: -.719009697, y: -.0646759048}
      - {x: -.489009708, y: -.104675904}
      - {x: -.239009693, y: -.104675904}
      - {x: -.0490097031, y: -.144675896}
      - {x: .0509902947, y: -.134675905}
      - {x: .130990297, y: -.0346759036}
      - {x: .130990297, y: .0953240916}
      - {x: .0109902956, y: .195324093}
      - {x: -.2790097, y: .405324101}
      - {x: -.679009676, y: .785324097}
      - {x: -.749009669, y: .785324097}
      - {x: -.949009657, y: .765324056}
      - {x: -1.00900972, y: .755324066}
      - {x: -1.1590097, y: .795324087}
      - {x: -1.32900965, y: .785324097}
      - {x: -1.3990097, y: .845324099}
      - {x: -1.55900967, y: 1.01532412}
      - {x: -1.69900966, y: 1.14532411}
      - {x: -1.76900971, y: 1.16532409}
      - {x: -1.76900971, y: 1.16532409}
      - {x: -1.79900968, y: 1.16532409}
      - {x: -1.82900965, y: 1.12532413}
      - {x: -1.82900965, y: 1.08532405}
      - {x: -1.70900965, y: .885324061}
      - {x: -1.66900969, y: .725324094}
      - {x: -1.61900961, y: .61532408}
      - {x: -1.21900964, y: .165324092}
      - {x: -1.12900972, y: .0253240969}
      - {x: -1.11900973, y: -.144675896}
      - {x: -1.17900968, y: -.244675905}
      - {x: -1.1590097, y: -.294675887}
      - {x: -1.12900972, y: -.294675887}
      - {x: -1.12900972, y: -.294675887}
      - {x: -1.03900969, y: -.224675894}
      - {x: -.979009688, y: -.0546759032}
      - {x: -.909009695, y: -.0746759027}
--- !u!114 &11400000
MonoBehaviour:
  m_ObjectHideFlags: 1
  m_PrefabParentObject: {fileID: 0}
  m_PrefabInternal: {fileID: 100100000}
  m_GameObject: {fileID: 100000}
  m_Enabled: 1
  m_EditorHideFlags: 0
  m_Script: {fileID: 11500000, guid: dfe53e23651b28b4a84e0eafec67ec93, type: 3}
  m_Name: 
  m_EditorClassIdentifier: 
  Range: 40
  Child: {fileID: 100006}
--- !u!114 &11400002
MonoBehaviour:
  m_ObjectHideFlags: 1
  m_PrefabParentObject: {fileID: 0}
  m_PrefabInternal: {fileID: 100100000}
  m_GameObject: {fileID: 100006}
  m_Enabled: 1
  m_EditorHideFlags: 0
  m_Script: {fileID: 11500000, guid: 549a73b9cca299b4abf9979f6ee4a810, type: 3}
  m_Name: 
  m_EditorClassIdentifier: 
  Attraction: {fileID: 11400004}
--- !u!114 &11400004
MonoBehaviour:
  m_ObjectHideFlags: 1
  m_PrefabParentObject: {fileID: 0}
  m_PrefabInternal: {fileID: 100100000}
  m_GameObject: {fileID: 100006}
  m_Enabled: 1
  m_EditorHideFlags: 0
  m_Script: {fileID: 11500000, guid: 090f705cf33bff5458c2b82763c10c3e, type: 3}
  m_Name: 
  m_EditorClassIdentifier: 
  Body: {fileID: 0}
  Target: {fileID: 0}
  Strength: 1
  MinForce: 0
  MaxForce: 30
  MaxDistance: 5
  MaxSpeed: 10
  Active: 1
--- !u!114 &11400006
MonoBehaviour:
  m_ObjectHideFlags: 1
  m_PrefabParentObject: {fileID: 0}
  m_PrefabInternal: {fileID: 100100000}
  m_GameObject: {fileID: 100006}
  m_Enabled: 1
  m_EditorHideFlags: 0
  m_Script: {fileID: 11500000, guid: 1c5b454c3987fbe40963efd6b1ec944d, type: 3}
  m_Name: 
  m_EditorClassIdentifier: 
  Body: {fileID: 0}
  Strength: 20
--- !u!114 &11400008
MonoBehaviour:
  m_ObjectHideFlags: 1
  m_PrefabParentObject: {fileID: 0}
  m_PrefabInternal: {fileID: 100100000}
  m_GameObject: {fileID: 100002}
  m_Enabled: 1
  m_EditorHideFlags: 0
  m_Script: {fileID: 11500000, guid: cbc0ca74b8bdbfc42b762c72f92b75d9, type: 3}
  m_Name: 
  m_EditorClassIdentifier: 
  SeverEffect: {fileID: 100000, guid: 109904bed483ac04a80f500b2f9bf807, type: 2}
  SpurtEffect: {fileID: 100000, guid: 6c7428f6b2b083a499e1046b0c4f0a1b, type: 2}
  HurterLayers:
    serializedVersion: 2
    m_Bits: 512
  Health: .25
  SeverChildren: 0
  DestroyAfterSever: 1
--- !u!114 &11400010
MonoBehaviour:
  m_ObjectHideFlags: 1
  m_PrefabParentObject: {fileID: 0}
  m_PrefabInternal: {fileID: 100100000}
  m_GameObject: {fileID: 100006}
  m_Enabled: 1
  m_EditorHideFlags: 0
  m_Script: {fileID: 11500000, guid: cbc0ca74b8bdbfc42b762c72f92b75d9, type: 3}
  m_Name: 
  m_EditorClassIdentifier: 
  SeverEffect: {fileID: 100000, guid: 109904bed483ac04a80f500b2f9bf807, type: 2}
  SpurtEffect: {fileID: 100000, guid: 6c7428f6b2b083a499e1046b0c4f0a1b, type: 2}
  HurterLayers:
    serializedVersion: 2
    m_Bits: 512
  Health: .25
  SeverChildren: 1
  DestroyAfterSever: 1
--- !u!114 &11400012
MonoBehaviour:
  m_ObjectHideFlags: 1
  m_PrefabParentObject: {fileID: 0}
  m_PrefabInternal: {fileID: 100100000}
  m_GameObject: {fileID: 100004}
  m_Enabled: 1
  m_EditorHideFlags: 0
  m_Script: {fileID: 11500000, guid: cbc0ca74b8bdbfc42b762c72f92b75d9, type: 3}
  m_Name: 
  m_EditorClassIdentifier: 
  SeverEffect: {fileID: 100000, guid: 109904bed483ac04a80f500b2f9bf807, type: 2}
  SpurtEffect: {fileID: 100000, guid: 6c7428f6b2b083a499e1046b0c4f0a1b, type: 2}
  HurterLayers:
    serializedVersion: 2
    m_Bits: 512
  Health: .25
  SeverChildren: 0
  DestroyAfterSever: 1
--- !u!114 &11400014
MonoBehaviour:
  m_ObjectHideFlags: 1
  m_PrefabParentObject: {fileID: 0}
  m_PrefabInternal: {fileID: 100100000}
  m_GameObject: {fileID: 100002}
  m_Enabled: 1
  m_EditorHideFlags: 0
  m_Script: {fileID: 11500000, guid: 17b4f1348d31b0b42848b9dfd39e1008, type: 3}
  m_Name: 
  m_EditorClassIdentifier: 
  Strength: -30
  Interval: .25
--- !u!114 &11400016
MonoBehaviour:
  m_ObjectHideFlags: 1
  m_PrefabParentObject: {fileID: 0}
  m_PrefabInternal: {fileID: 100100000}
  m_GameObject: {fileID: 100004}
  m_Enabled: 1
  m_EditorHideFlags: 0
  m_Script: {fileID: 11500000, guid: 17b4f1348d31b0b42848b9dfd39e1008, type: 3}
  m_Name: 
  m_EditorClassIdentifier: 
  Strength: 30
  Interval: .25
--- !u!212 &21200000
SpriteRenderer:
  m_ObjectHideFlags: 1
  m_PrefabParentObject: {fileID: 0}
  m_PrefabInternal: {fileID: 100100000}
  m_GameObject: {fileID: 100002}
  m_Enabled: 1
  m_CastShadows: 0
  m_ReceiveShadows: 0
  m_LightmapIndex: 255
  m_LightmapTilingOffset: {x: 1, y: 1, z: 0, w: 0}
  m_Materials:
  - {fileID: 2100000, guid: 0c4dabe272890a54a95f425d10460ed3, type: 2}
  m_SubsetIndices: 
  m_StaticBatchRoot: {fileID: 0}
  m_UseLightProbes: 0
  m_LightProbeAnchor: {fileID: 0}
  m_ScaleInLightmap: 1
  m_SortingLayerID: 0
  m_SortingOrder: -2
  m_Sprite: {fileID: 21300004, guid: 5342e58d27f26b14bb47537e7d2bc476, type: 3}
  m_Color: {r: 1, g: 1, b: 1, a: 1}
--- !u!212 &21200002
SpriteRenderer:
  m_ObjectHideFlags: 1
  m_PrefabParentObject: {fileID: 0}
  m_PrefabInternal: {fileID: 100100000}
  m_GameObject: {fileID: 100004}
  m_Enabled: 1
  m_CastShadows: 0
  m_ReceiveShadows: 0
  m_LightmapIndex: 255
  m_LightmapTilingOffset: {x: 1, y: 1, z: 0, w: 0}
  m_Materials:
  - {fileID: 2100000, guid: 0c4dabe272890a54a95f425d10460ed3, type: 2}
  m_SubsetIndices: 
  m_StaticBatchRoot: {fileID: 0}
  m_UseLightProbes: 0
  m_LightProbeAnchor: {fileID: 0}
  m_ScaleInLightmap: 1
  m_SortingLayerID: 0
  m_SortingOrder: -4
  m_Sprite: {fileID: 21300002, guid: 5342e58d27f26b14bb47537e7d2bc476, type: 3}
  m_Color: {r: 1, g: 1, b: 1, a: 1}
--- !u!212 &21200004
SpriteRenderer:
  m_ObjectHideFlags: 1
  m_PrefabParentObject: {fileID: 0}
  m_PrefabInternal: {fileID: 100100000}
  m_GameObject: {fileID: 100006}
  m_Enabled: 1
  m_CastShadows: 0
  m_ReceiveShadows: 0
  m_LightmapIndex: 255
  m_LightmapTilingOffset: {x: 1, y: 1, z: 0, w: 0}
  m_Materials:
  - {fileID: 2100000, guid: 0c4dabe272890a54a95f425d10460ed3, type: 2}
  m_SubsetIndices: 
  m_StaticBatchRoot: {fileID: 0}
  m_UseLightProbes: 0
  m_LightProbeAnchor: {fileID: 0}
  m_ScaleInLightmap: 1
  m_SortingLayerID: 0
  m_SortingOrder: 3
  m_Sprite: {fileID: 21300000, guid: 5342e58d27f26b14bb47537e7d2bc476, type: 3}
  m_Color: {r: 1, g: 1, b: 1, a: 1}
--- !u!233 &23300000
HingeJoint2D:
  m_ObjectHideFlags: 1
  m_PrefabParentObject: {fileID: 0}
  m_PrefabInternal: {fileID: 100100000}
  m_GameObject: {fileID: 100002}
  m_Enabled: 1
  m_CollideConnected: 0
  m_ConnectedRigidBody: {fileID: 5000002}
  m_Anchor: {x: 0, y: 0}
  m_ConnectedAnchor: {x: 0, y: 0}
  m_UseMotor: 0
  m_Motor:
    m_MotorSpeed: 0
    m_MaximumMotorForce: 10000
  m_UseLimits: 1
  m_AngleLimits:
    m_LowerAngle: -40
    m_UpperAngle: 40
--- !u!233 &23300002
HingeJoint2D:
  m_ObjectHideFlags: 1
  m_PrefabParentObject: {fileID: 0}
  m_PrefabInternal: {fileID: 100100000}
  m_GameObject: {fileID: 100004}
  m_Enabled: 1
  m_CollideConnected: 0
  m_ConnectedRigidBody: {fileID: 5000002}
  m_Anchor: {x: 0, y: 0}
  m_ConnectedAnchor: {x: 0, y: 0}
  m_UseMotor: 0
  m_Motor:
    m_MotorSpeed: 0
    m_MaximumMotorForce: 10000
  m_UseLimits: 1
  m_AngleLimits:
    m_LowerAngle: -40
    m_UpperAngle: 40
--- !u!1001 &100100000
Prefab:
  m_ObjectHideFlags: 1
  serializedVersion: 2
  m_Modification:
    m_TransformParent: {fileID: 0}
    m_Modifications: []
    m_RemovedComponents: []
  m_ParentPrefab: {fileID: 0}
  m_RootGameObject: {fileID: 100000}
  m_IsPrefabParent: 1
  m_IsExploded: 1
